%YAML 1.1
%TAG !u! tag:unity3d.com,2011:
--- !u!1045 &1
EditorBuildSettings:
  m_ObjectHideFlags: 0
  serializedVersion: 2
  m_Scenes:
  - enabled: 1
    path: Assets/_Scenes/LoadScene.unity
    guid: c66fed69e41baa342b6c39755bf913ea
  - enabled: 1
    path: Assets/_Scenes/MainScene.unity
    guid: 2cda990e2423bbf4892e6590ba056729
  m_configObjects: {}
